容쯭
    "content":  [
                    {
                        "chatLieu":  {
                                         "idChatLieu":  7,
                                         "maChatLieu":  "CL_1781187676934",
                                         "tenChatLieu":  "Cotton"
                                     },
                        "hinhAnh":  "ch칁춿a c츾췁",
                        "idSp":  12,
                        "maSp":  "SP10",
                        "moTa":  "츾춰o 츿춤치췈췇p",
                        "ngayCapNhat":  null,
                        "ngayTao":  "2026-06-12T05:43:58.957",
                        "nguoiCapNhat":  null,
                        "nguoiTao":  "Admin",
                        "tenSp":  "츾추o thun",
                        "thuongHieu":  "Rizar",
                        "trangThai":  true,
                        "xuatXu":  {
                                       "idXuatXu":  5,
                                       "maXuatXu":  "XX_1781187968091",
                                       "tenXuatXu":  "Trung Qu치췉춤c"
                                   }
                    },
                    {
                        "chatLieu":  {
                                         "idChatLieu":  9,
                                         "maChatLieu":  "CL_1781192560291",
                                         "tenChatLieu":  "V치췈춲i"
                                     },
                        "hinhAnh":  "oversize_den.jpg",
                        "idSp":  11,
                        "maSp":  "SP009",
                        "moTa":  "츾춰o 츿춤치췈췇p",
                        "ngayCapNhat":  null,
                        "ngayTao":  "2026-06-11T22:42:40.283",
                        "nguoiCapNhat":  null,
                        "nguoiTao":  "Admin",
                        "tenSp":  "츾추o ph츾췂ng",
                        "thuongHieu":  "Adidas",
                        "trangThai":  true,
                        "xuatXu":  {
                                       "idXuatXu":  1,
                                       "maXuatXu":  "VN",
                                       "tenXuatXu":  "Vi치췉춚t Nam"
                                   }
                    },
                    {
                        "chatLieu":  {
                                         "idChatLieu":  7,
                                         "maChatLieu":  "CL_1781187676934",
                                         "tenChatLieu":  "Cotton"
                                     },
                        "hinhAnh":  "",
                        "idSp":  9,
                        "maSp":  "SP008",
                        "moTa":  "츾춰o 츿춤치췈췇p",
                        "ngayCapNhat":  null,
                        "ngayTao":  "2026-06-11T21:26:08.083",
                        "nguoiCapNhat":  null,
                        "nguoiTao":  "Admin",
                        "tenSp":  "츾추o C치췉춫c tay",
                        "thuongHieu":  "Polo",
                        "trangThai":  true,
                        "xuatXu":  {
                                       "idXuatXu":  5,
                                       "maXuatXu":  "XX_1781187968091",
                                       "tenXuatXu":  "Trung Qu치췉춤c"
                                   }
                    },
                    {
                        "chatLieu":  {
                                         "idChatLieu":  6,
                                         "maChatLieu":  "CL_1781171861321",
                                         "tenChatLieu":  "L치췉춴a"
                                     },
                        "hinhAnh":  "",
                        "idSp":  8,
                        "maSp":  "TEST999",
                        "moTa":  "test l치췉춴a th츾춰i lan",
                        "ngayCapNhat":  "2026-06-11T17:42:47.837",
                        "ngayTao":  "2026-06-11T16:57:41.107",
                        "nguoiCapNhat":  "Admin",
                        "nguoiTao":  "Admin",
                        "tenSp":  "츾추o test nh치췈춼p text",
                        "thuongHieu":  "Zara",
                        "trangThai":  false,
                        "xuatXu":  {
                                       "idXuatXu":  4,
                                       "maXuatXu":  "XX_1781174567846",
                                       "tenXuatXu":  "Viet Nam"
                                   }
                    },
                    {
                        "chatLieu":  {
                                         "idChatLieu":  10,
                                         "maChatLieu":  "CL_1781250915312",
                                         "tenChatLieu":  "L츾춰츽췉츽춴a"
                                     },
                        "hinhAnh":  "https://example.com/ao-moi.jpg",
                        "idSp":  7,
                        "maSp":  "SP007",
                        "moTa":  "츾춗츽춣츾춖츽춲 c츾춰츽췈츽춼p nh츾춰츽췈츽춼t m츾춖츽췂 t츾춰츽췈츽춲 m츾춰츽췉츽춭i",
                        "ngayCapNhat":  "2026-06-12T14:57:02.297",
                        "ngayTao":  "2026-06-10T21:51:03.917",
                        "nguoiCapNhat":  "Admin",
                        "nguoiTao":  "Admin",
                        "tenSp":  "츾춖츽추o c츾춰츽췉츽춫c tay l츾춰츽췉츽춰",
                        "thuongHieu":  "Zara",
                        "trangThai":  false,
                        "xuatXu":  {
                                       "idXuatXu":  6,
                                       "maXuatXu":  "XX_1781250915269",
                                       "tenXuatXu":  "Trung Qu츾춰츽췉츽춤c"
                                   }
                    }
                ],
    "page":  {
                 "size":  5,
                 "number":  0,
                 "totalElements":  10,
                 "totalPages":  2
             }
}
