容쯭"content":[{"idSp":1,"maSp":"SP001","tenSp":"츾추o Polo Basic Tr치췈춾ng","moTa":"츾추o polo nam cotton","hinhAnh":"polo_trang.jpg","imageUrl":"/uploads/polo_trang.jpg","trangThai":true,"ngayTao":"2026-06-12T20:44:01.89","giaBanMin":299000.00,"giaBanMax":299000.00,"tongTon":180,"chatLieu":{"id":1,"ten":"Cotton 100%"},"xuatXu":{"id":1,"ten":"Vi치췉춚t Nam"},"loaiAo":"츾추o ph츾췂ng c츾췁 c치췉춧","loaiAos":[{"id":1,"ten":"츾추o ph츾췂ng c츾췁 c치췉춧"}],"kichCos":[{"id":2,"ten":"M"},{"id":3,"ten":"L"}],"mauSacs":[{"id":2,"ten":"Tr치췈춾ng"}],"phongCachMacs":[{"id":3,"ten":"Casual"}],"kieuDangs":[{"id":2,"ten":"Slim Fit"}]}],"page":{"size":1,"number":0,"totalElements":5,"totalPages":5}}
